<?xml version="1.0" encoding="utf-8"?>
<!-- Generator: Adobe Illustrator 16.0.0, SVG Export Plug-In . SVG Version: 6.00 Build 0)  -->
<!DOCTYPE svg PUBLIC "-//W3C//DTD SVG 1.1//EN" "http://www.w3.org/Graphics/SVG/1.1/DTD/svg11.dtd">
<svg version="1.1" id="Layer_1" xmlns="http://www.w3.org/2000/svg" xmlns:xlink="http://www.w3.org/1999/xlink" x="0px" y="0px"
	 width="15.615px" height="3.6px" viewBox="0 0 15.615 3.6" style="enable-background:new 0 0 15.615 3.6;" xml:space="preserve">
<g>
	<circle style="fill:#B8B8B8;" cx="1.8" cy="1.8" r="1.8"/>
	<circle style="fill:#B8B8B8;" cx="7.816" cy="1.8" r="1.8"/>
	<circle style="fill:#B8B8B8;" cx="13.816" cy="1.8" r="1.8"/>
</g>
</svg>
