<?xml version="1.0" encoding="utf-8"?>
<!-- Generator: Adobe Illustrator 16.0.0, SVG Export Plug-In . SVG Version: 6.00 Build 0)  -->
<!DOCTYPE svg PUBLIC "-//W3C//DTD SVG 1.1//EN" "http://www.w3.org/Graphics/SVG/1.1/DTD/svg11.dtd">
<svg version="1.1" id="Layer_1" xmlns="http://www.w3.org/2000/svg" xmlns:xlink="http://www.w3.org/1999/xlink" x="0px" y="0px"
	 width="14px" height="14px" viewBox="0 0 14 14" style="enable-background:new 0 0 14 14;" xml:space="preserve">
<path style="fill:#5F5069;" d="M7,0C3.134,0,0,3.134,0,7s3.134,7,7,7s7-3.134,7-7S10.866,0,7,0z M4.281,4
	c0.708,0,1.281,0.672,1.281,1.5S4.989,7,4.281,7S3,6.328,3,5.5S3.574,4,4.281,4z M7,11c-2.209,0-4-1.343-4-3h1.132
	C4.495,8.937,5.634,9.625,7,9.625c1.365,0,2.505-0.688,2.868-1.625H11C11,9.657,9.209,11,7,11z M9.719,7
	C9.011,7,8.438,6.328,8.438,5.5S9.011,4,9.719,4S11,4.672,11,5.5S10.427,7,9.719,7z"/>
</svg>
