<?xml version="1.0" encoding="utf-8"?>
<!-- Generator: Adobe Illustrator 16.0.0, SVG Export Plug-In . SVG Version: 6.00 Build 0)  -->
<!DOCTYPE svg PUBLIC "-//W3C//DTD SVG 1.1//EN" "http://www.w3.org/Graphics/SVG/1.1/DTD/svg11.dtd">
<svg version="1.1" id="Layer_1" xmlns="http://www.w3.org/2000/svg" xmlns:xlink="http://www.w3.org/1999/xlink" x="0px" y="0px"
	 width="13px" height="9px" viewBox="0 0 13 9" style="enable-background:new 0 0 13 9;" xml:space="preserve">
<path style="fill:#5E4F68;" d="M4.063,0v2.468H13V0H4.063z M8.124,3.281H4.063v2.438h4.061V3.281z M4.063,9h6.5V6.531h-6.5V9z
	 M1.219,0C0.545,0,0,0.553,0,1.234s0.545,1.234,1.219,1.234c0.673,0,1.218-0.552,1.218-1.234S1.892,0,1.219,0z M1.219,3.281
	C0.545,3.281,0,3.827,0,4.5s0.545,1.219,1.219,1.219c0.673,0,1.218-0.546,1.218-1.219S1.892,3.281,1.219,3.281z M1.219,6.531
	C0.545,6.531,0,7.085,0,7.766C0,8.447,0.545,9,1.219,9c0.673,0,1.218-0.553,1.218-1.234C2.437,7.085,1.892,6.531,1.219,6.531z"/>
</svg>
