<?xml version="1.0" encoding="utf-8"?>
<!-- Generator: Adobe Illustrator 16.0.0, SVG Export Plug-In . SVG Version: 6.00 Build 0)  -->
<!DOCTYPE svg PUBLIC "-//W3C//DTD SVG 1.1//EN" "http://www.w3.org/Graphics/SVG/1.1/DTD/svg11.dtd">
<svg version="1.1" id="Layer_2" xmlns="http://www.w3.org/2000/svg" xmlns:xlink="http://www.w3.org/1999/xlink" x="0px" y="0px"
	 width="16px" height="14px" viewBox="0 0 16 14" style="enable-background:new 0 0 16 14;" xml:space="preserve">
<g>
	<path style="fill:#B8B8B8;" d="M14,10c0,1.104-0.896,2-2,2H4c-1.103,0-2-0.896-2-2V4c0-1.103,0.897-2,2-2h4V0C6.323,0,4,0,4,0
		C1.791,0,0,1.791,0,4v6c0,2.209,1.791,4,4,4h8c2.209,0,4-1.791,4-4c0,0,0-0.779,0-2h-2V10z"/>
	<polygon style="fill:#B8B8B8;" points="10,0 10,2 12.878,2 7,7.877 8.132,9.01 14,3.141 14,6 16,6 16,0 	"/>
</g>
</svg>
